SAVOR: Part III
…
Trier le dataframe suivant la variable SMOKE (qui est un facteur). Comment R choisit-il pour déterminer quelle modalité du facteur va apparaître en premier ?

Rajouter une variable, nommée lettre au dataframe, contenant des lettres majuscules choisies alétoirement. On peut utiliser sample(letters, nrow(naissance), replace = TRUE) pour générer ce tirage aléatoire.

Trier le dataframe suivant la nouvelle variable lettre.

La classe tlb

Le package s’appuie sur une nouvelle classe d’objets : tbl. Le résultat affiché lorsqu’on tape le nom du tableau est tronqué pour cette nouvelle classe :

Code
nais <- as_tibble(naissance)
nais

# A tibble: 190 × 10
      ID   AGE   LWT  RACE SMOKE        PTL    HT    UI   FVT   BWT
   <dbl> <dbl> <dbl> <dbl> <fct>      <dbl> <dbl> <dbl> <dbl> <dbl>
 1    85    19   182     2 Non-Fumeur     0     0     1     0  2523
 2    86    33   155     3 Non-Fumeur     0     0     0     3  2551
 3    87    20   105     1 Fumeur         0     0     0     1  2557
 4    88    21   108     1 Fumeur         0     0     1     2  2594
 5    89    18   107     1 Fumeur         0     0     1     0  2600
 6    91    21   124     3 Non-Fumeur     0     0     0     0  2622
 7    92    22   118     1 Non-Fumeur     0     0     0     1  2637
 8    93    17   103     3 Non-Fumeur     0     0     0     1  2637
 9    94    29   123     1 Fumeur         0     0     0     1  2663
10    95    26   113     1 Fumeur         0     0     0     0  2665
# ℹ 180 more rows
…
