…
Liquet B, De Micheaux PL, & Thiébaut R. Group and sparse group partial least square approaches applied in genomics context. 32(1):35-42, 2016. 

, Skinner J & Thiébaut R. Time-Course Gene Set Analysis for Longitudinal Gene Expression Data. 11(6):e1004310, 2015. 

Furman D*, *, Simon N, Jojic V, Dekker CL, Thiébaut R, Tibshirani RJ & Davis MM. Systems analysis of sex differences reveals an immunosuppressive role for testosterone in the response to influenza vaccination. 111(2):869-874, 2014. 

Thiébaut R, & Richert L. The analysis of “Big Data” in clinical research. 62(1):1-4, 2014. 

Commenges D & . Evidence synthesis through a degradation model applied to myocardial infarction. 19(1):1-18, 2013. 

Selected communications

\(\triangleright\) Oral communications: 

## # A tibble: 23 × 3
##    what                                                              when  with 
##    <chr>                                                             <chr> <chr>
##  1 "\\ul{Hejblum B}, Parast L, Agniel D, Transcriptomics: a potenti… "\\m… <NA> 
##  2 "\\ul{Hejblum B}, Gauthier M, Ba K, Thiébaut R, Agniel D, Distri… "\\m… <NA> 
##  3 "\\ul{Hejblum B}, Machine learning approaches for the analysis o… "\\m… <NA> 
##  4 "\\ul{Hejblum B}, Teaching Bayesian statistics during a pandemic… "\\m… <NA> 
##  5 "Prague M, Collin A, Wittkop L, Dutartre D, Clairon Q, Moireau P… "\\m… <NA> 
##  6 "\\ul{Hejblum B}, Clustering of flow cytometry data using non pa… "\\m… <NA> 
##  7 "\\ul{Hejblum B}, Distribution-free complex hypothesis testing f… "\\m… <NA> 
##  8 "\\ul{Hejblum B}, Gauthier M, Thiébaut R, Agniel D, A variance c… "\\m… <NA> 
##  9 "\\ul{Hejblum B}, Montani I, Leffondré K, Diallo G, Mougin F, Pa… "\\m… <NA> 
## 10 "\\ul{Hejblum B}, Gauthier M, Thiébaut R, Agniel D, Controlling … "\\m… <NA> 
## # ℹ 13 more rows
…
